Analysis & Synthesis report for cache_memory
Fri Aug 25 15:27:21 2017
Quartus II 64-Bit Version 13.0.1 Build 232 06/12/2013 Service Pack 1 SJ Full Version


---------------------
; Table of Contents ;
---------------------
  1. Legal Notice
  2. Analysis & Synthesis Summary
  3. Analysis & Synthesis Settings
  4. Parallel Compilation
  5. Analysis & Synthesis Source Files Read
  6. Analysis & Synthesis Resource Usage Summary
  7. Analysis & Synthesis Resource Utilization by Entity
  8. Registers Removed During Synthesis
  9. General Register Statistics
 10. Inverted Register Statistics
 11. Multiplexer Restructuring Statistics (Restructuring Performed)
 12. Elapsed Time Per Partition
 13. Analysis & Synthesis Messages



----------------
; Legal Notice ;
----------------
Copyright (C) 1991-2013 Altera Corporation
Your use of Altera Corporation's design tools, logic functions 
and other software and tools, and its AMPP partner logic 
functions, and any output files from any of the foregoing 
(including device programming or simulation files), and any 
associated documentation or information are expressly subject 
to the terms and conditions of the Altera Program License 
Subscription Agreement, Altera MegaCore Function License 
Agreement, or other applicable license agreement, including, 
without limitation, that your use is for the sole purpose of 
programming logic devices manufactured by Altera and sold by 
Altera or its authorized distributors.  Please refer to the 
applicable agreement for further details.



+---------------------------------------------------------------------------------------+
; Analysis & Synthesis Summary                                                          ;
+------------------------------------+--------------------------------------------------+
; Analysis & Synthesis Status        ; Successful - Fri Aug 25 15:27:21 2017            ;
; Quartus II 64-Bit Version          ; 13.0.1 Build 232 06/12/2013 SP 1 SJ Full Version ;
; Revision Name                      ; cache_memory                                     ;
; Top-level Entity Name              ; cache_memory                                     ;
; Family                             ; Cyclone II                                       ;
; Total logic elements               ; 394                                              ;
;     Total combinational functions  ; 236                                              ;
;     Dedicated logic registers      ; 210                                              ;
; Total registers                    ; 210                                              ;
; Total pins                         ; 101                                              ;
; Total virtual pins                 ; 0                                                ;
; Total memory bits                  ; 0                                                ;
; Embedded Multiplier 9-bit elements ; 0                                                ;
; Total PLLs                         ; 0                                                ;
+------------------------------------+--------------------------------------------------+


+----------------------------------------------------------------------------------------------------------------------+
; Analysis & Synthesis Settings                                                                                        ;
+----------------------------------------------------------------------------+--------------------+--------------------+
; Option                                                                     ; Setting            ; Default Value      ;
+----------------------------------------------------------------------------+--------------------+--------------------+
; Device                                                                     ; EP2C35F672C6       ;                    ;
; Top-level entity name                                                      ; cache_memory       ; cache_memory       ;
; Family name                                                                ; Cyclone II         ; Cyclone IV GX      ;
; VHDL Show LMF Mapping Messages                                             ; Off                ;                    ;
; Verilog Show LMF Mapping Messages                                          ; Off                ;                    ;
; Use smart compilation                                                      ; Off                ; Off                ;
; Enable parallel Assembler and TimeQuest Timing Analyzer during compilation ; On                 ; On                 ;
; Enable compact report table                                                ; Off                ; Off                ;
; Restructure Multiplexers                                                   ; Auto               ; Auto               ;
; Create Debugging Nodes for IP Cores                                        ; Off                ; Off                ;
; Preserve fewer node names                                                  ; On                 ; On                 ;
; Disable OpenCore Plus hardware evaluation                                  ; Off                ; Off                ;
; Verilog Version                                                            ; Verilog_2001       ; Verilog_2001       ;
; VHDL Version                                                               ; VHDL_1993          ; VHDL_1993          ;
; State Machine Processing                                                   ; Auto               ; Auto               ;
; Safe State Machine                                                         ; Off                ; Off                ;
; Extract Verilog State Machines                                             ; On                 ; On                 ;
; Extract VHDL State Machines                                                ; On                 ; On                 ;
; Ignore Verilog initial constructs                                          ; Off                ; Off                ;
; Iteration limit for constant Verilog loops                                 ; 5000               ; 5000               ;
; Iteration limit for non-constant Verilog loops                             ; 250                ; 250                ;
; Add Pass-Through Logic to Inferred RAMs                                    ; On                 ; On                 ;
; Infer RAMs from Raw Logic                                                  ; On                 ; On                 ;
; Parallel Synthesis                                                         ; On                 ; On                 ;
; DSP Block Balancing                                                        ; Auto               ; Auto               ;
; NOT Gate Push-Back                                                         ; On                 ; On                 ;
; Power-Up Don't Care                                                        ; On                 ; On                 ;
; Remove Redundant Logic Cells                                               ; Off                ; Off                ;
; Remove Duplicate Registers                                                 ; On                 ; On                 ;
; Ignore CARRY Buffers                                                       ; Off                ; Off                ;
; Ignore CASCADE Buffers                                                     ; Off                ; Off                ;
; Ignore GLOBAL Buffers                                                      ; Off                ; Off                ;
; Ignore ROW GLOBAL Buffers                                                  ; Off                ; Off                ;
; Ignore LCELL Buffers                                                       ; Off                ; Off                ;
; Ignore SOFT Buffers                                                        ; On                 ; On                 ;
; Limit AHDL Integers to 32 Bits                                             ; Off                ; Off                ;
; Optimization Technique                                                     ; Balanced           ; Balanced           ;
; Carry Chain Length                                                         ; 70                 ; 70                 ;
; Auto Carry Chains                                                          ; On                 ; On                 ;
; Auto Open-Drain Pins                                                       ; On                 ; On                 ;
; Perform WYSIWYG Primitive Resynthesis                                      ; Off                ; Off                ;
; Auto ROM Replacement                                                       ; On                 ; On                 ;
; Auto RAM Replacement                                                       ; On                 ; On                 ;
; Auto Shift Register Replacement                                            ; Auto               ; Auto               ;
; Allow Shift Register Merging across Hierarchies                            ; Auto               ; Auto               ;
; Auto Clock Enable Replacement                                              ; On                 ; On                 ;
; Strict RAM Replacement                                                     ; Off                ; Off                ;
; Allow Synchronous Control Signals                                          ; On                 ; On                 ;
; Force Use of Synchronous Clear Signals                                     ; Off                ; Off                ;
; Auto RAM to Logic Cell Conversion                                          ; Off                ; Off                ;
; Auto Resource Sharing                                                      ; Off                ; Off                ;
; Allow Any RAM Size For Recognition                                         ; Off                ; Off                ;
; Allow Any ROM Size For Recognition                                         ; Off                ; Off                ;
; Allow Any Shift Register Size For Recognition                              ; Off                ; Off                ;
; Use LogicLock Constraints during Resource Balancing                        ; On                 ; On                 ;
; Ignore translate_off and synthesis_off directives                          ; Off                ; Off                ;
; Timing-Driven Synthesis                                                    ; Off                ; Off                ;
; Report Parameter Settings                                                  ; On                 ; On                 ;
; Report Source Assignments                                                  ; On                 ; On                 ;
; Report Connectivity Checks                                                 ; On                 ; On                 ;
; Ignore Maximum Fan-Out Assignments                                         ; Off                ; Off                ;
; Synchronization Register Chain Length                                      ; 2                  ; 2                  ;
; PowerPlay Power Optimization                                               ; Normal compilation ; Normal compilation ;
; HDL message level                                                          ; Level2             ; Level2             ;
; Suppress Register Optimization Related Messages                            ; Off                ; Off                ;
; Number of Removed Registers Reported in Synthesis Report                   ; 5000               ; 5000               ;
; Number of Swept Nodes Reported in Synthesis Report                         ; 5000               ; 5000               ;
; Number of Inverted Registers Reported in Synthesis Report                  ; 100                ; 100                ;
; Clock MUX Protection                                                       ; On                 ; On                 ;
; Auto Gated Clock Conversion                                                ; Off                ; Off                ;
; Block Design Naming                                                        ; Auto               ; Auto               ;
; SDC constraint protection                                                  ; Off                ; Off                ;
; Synthesis Effort                                                           ; Auto               ; Auto               ;
; Shift Register Replacement - Allow Asynchronous Clear Signal               ; On                 ; On                 ;
; Pre-Mapping Resynthesis Optimization                                       ; Off                ; Off                ;
; Analysis & Synthesis Message Level                                         ; Medium             ; Medium             ;
; Disable Register Merging Across Hierarchies                                ; Auto               ; Auto               ;
; Resource Aware Inference For Block RAM                                     ; On                 ; On                 ;
; Synthesis Seed                                                             ; 1                  ; 1                  ;
+----------------------------------------------------------------------------+--------------------+--------------------+


+------------------------------------------+
; Parallel Compilation                     ;
+----------------------------+-------------+
; Processors                 ; Number      ;
+----------------------------+-------------+
; Number detected on machine ; 4           ;
; Maximum allowed            ; 2           ;
;                            ;             ;
; Average used               ; 1.00        ;
; Maximum used               ; 1           ;
;                            ;             ;
; Usage by Processor         ; % Time Used ;
;     Processor 1            ; 100.0%      ;
;     Processors 2-4         ;   0.0%      ;
+----------------------------+-------------+


+-----------------------------------------------------------------------------------------------------------------------------------------------------------+
; Analysis & Synthesis Source Files Read                                                                                                                    ;
+----------------------------------+-----------------+------------------------+-------------------------------------------------------------------+---------+
; File Name with User-Entered Path ; Used in Netlist ; File Type              ; File Name with Absolute Path                                      ; Library ;
+----------------------------------+-----------------+------------------------+-------------------------------------------------------------------+---------+
; cache_memory.v                   ; yes             ; User Verilog HDL File  ; C:/Users/Kira/Desktop/LAOC Certo/parteIII/parteIII/cache_memory.v ;         ;
+----------------------------------+-----------------+------------------------+-------------------------------------------------------------------+---------+


+------------------------------------------------------+
; Analysis & Synthesis Resource Usage Summary          ;
+---------------------------------------------+--------+
; Resource                                    ; Usage  ;
+---------------------------------------------+--------+
; Estimated Total logic elements              ; 394    ;
;                                             ;        ;
; Total combinational functions               ; 236    ;
; Logic element usage by number of LUT inputs ;        ;
;     -- 4 input functions                    ; 192    ;
;     -- 3 input functions                    ; 3      ;
;     -- <=2 input functions                  ; 41     ;
;                                             ;        ;
; Logic elements by mode                      ;        ;
;     -- normal mode                          ; 236    ;
;     -- arithmetic mode                      ; 0      ;
;                                             ;        ;
; Total registers                             ; 210    ;
;     -- Dedicated logic registers            ; 210    ;
;     -- I/O registers                        ; 0      ;
;                                             ;        ;
; I/O pins                                    ; 101    ;
; Embedded Multiplier 9-bit elements          ; 0      ;
; Maximum fan-out node                        ; SW[16] ;
; Maximum fan-out                             ; 210    ;
; Total fan-out                               ; 1489   ;
; Average fan-out                             ; 2.72   ;
+---------------------------------------------+--------+


+-----------------------------------------------------------------------------------------------------------------------------------------------------------------------------------------------------+
; Analysis & Synthesis Resource Utilization by Entity                                                                                                                                                 ;
+--------------------------------+-------------------+--------------+-------------+--------------+---------+-----------+------+--------------+-----------------------------------------+--------------+
; Compilation Hierarchy Node     ; LC Combinationals ; LC Registers ; Memory Bits ; DSP Elements ; DSP 9x9 ; DSP 18x18 ; Pins ; Virtual Pins ; Full Hierarchy Name                     ; Library Name ;
+--------------------------------+-------------------+--------------+-------------+--------------+---------+-----------+------+--------------+-----------------------------------------+--------------+
; |cache_memory                  ; 236 (0)           ; 210 (0)      ; 0           ; 0            ; 0       ; 0         ; 101  ; 0            ; |cache_memory                           ; work         ;
;    |cache_data:CD|             ; 194 (194)         ; 210 (210)    ; 0           ; 0            ; 0       ; 0         ; 0    ; 0            ; |cache_memory|cache_data:CD             ; work         ;
;    |convert_to_hexadecimal:H0| ; 7 (7)             ; 0 (0)        ; 0           ; 0            ; 0       ; 0         ; 0    ; 0            ; |cache_memory|convert_to_hexadecimal:H0 ; work         ;
;    |convert_to_hexadecimal:H1| ; 7 (7)             ; 0 (0)        ; 0           ; 0            ; 0       ; 0         ; 0    ; 0            ; |cache_memory|convert_to_hexadecimal:H1 ; work         ;
;    |convert_to_hexadecimal:H2| ; 7 (7)             ; 0 (0)        ; 0           ; 0            ; 0       ; 0         ; 0    ; 0            ; |cache_memory|convert_to_hexadecimal:H2 ; work         ;
;    |convert_to_hexadecimal:H3| ; 7 (7)             ; 0 (0)        ; 0           ; 0            ; 0       ; 0         ; 0    ; 0            ; |cache_memory|convert_to_hexadecimal:H3 ; work         ;
;    |convert_to_hexadecimal:H4| ; 7 (7)             ; 0 (0)        ; 0           ; 0            ; 0       ; 0         ; 0    ; 0            ; |cache_memory|convert_to_hexadecimal:H4 ; work         ;
;    |convert_to_hexadecimal:H5| ; 7 (7)             ; 0 (0)        ; 0           ; 0            ; 0       ; 0         ; 0    ; 0            ; |cache_memory|convert_to_hexadecimal:H5 ; work         ;
+--------------------------------+-------------------+--------------+-------------+--------------+---------+-----------+------+--------------+-----------------------------------------+--------------+
Note: For table entries with two numbers listed, the numbers in parentheses indicate the number of resources of the given type used by the specific entity alone. The numbers listed outside of parentheses indicate the total resources of the given type used by the specific entity and all of its sub-entities in the hierarchy.


+---------------------------------------------------------------------------------+
; Registers Removed During Synthesis                                              ;
+----------------------------------------+----------------------------------------+
; Register name                          ; Reason for Removal                     ;
+----------------------------------------+----------------------------------------+
; cache_data:CD|CACHE[7][0][8]           ; Stuck at VCC due to stuck port data_in ;
; cache_data:CD|CACHE[7][1][8]           ; Stuck at VCC due to stuck port data_in ;
; cache_data:CD|CACHE[6][1][8]           ; Stuck at VCC due to stuck port data_in ;
; cache_data:CD|CACHE[6][0][8]           ; Stuck at VCC due to stuck port data_in ;
; cache_data:CD|CACHE[5][1][8]           ; Stuck at VCC due to stuck port data_in ;
; cache_data:CD|CACHE[5][0][8]           ; Stuck at VCC due to stuck port data_in ;
; cache_data:CD|CACHE[4][1][8]           ; Stuck at VCC due to stuck port data_in ;
; cache_data:CD|CACHE[4][0][8]           ; Stuck at VCC due to stuck port data_in ;
; cache_data:CD|CACHE[3][1][8]           ; Stuck at VCC due to stuck port data_in ;
; cache_data:CD|CACHE[3][0][8]           ; Stuck at VCC due to stuck port data_in ;
; cache_data:CD|CACHE[2][1][8]           ; Stuck at VCC due to stuck port data_in ;
; cache_data:CD|CACHE[2][0][8]           ; Stuck at VCC due to stuck port data_in ;
; cache_data:CD|CACHE[1][1][8]           ; Stuck at VCC due to stuck port data_in ;
; cache_data:CD|CACHE[1][0][8]           ; Stuck at VCC due to stuck port data_in ;
; cache_data:CD|CACHE[0][1][8]           ; Stuck at VCC due to stuck port data_in ;
; cache_data:CD|CACHE[0][0][8]           ; Stuck at VCC due to stuck port data_in ;
; Total Number of Removed Registers = 16 ;                                        ;
+----------------------------------------+----------------------------------------+


+------------------------------------------------------+
; General Register Statistics                          ;
+----------------------------------------------+-------+
; Statistic                                    ; Value ;
+----------------------------------------------+-------+
; Total registers                              ; 210   ;
; Number of registers using Synchronous Clear  ; 0     ;
; Number of registers using Synchronous Load   ; 0     ;
; Number of registers using Asynchronous Clear ; 0     ;
; Number of registers using Asynchronous Load  ; 0     ;
; Number of registers using Clock Enable       ; 200   ;
; Number of registers using Preset             ; 0     ;
+----------------------------------------------+-------+


+---------------------------------------------------+
; Inverted Register Statistics                      ;
+-----------------------------------------+---------+
; Inverted Register                       ; Fan out ;
+-----------------------------------------+---------+
; cache_data:CD|CACHE[2][0][0]            ; 1       ;
; cache_data:CD|CACHE[6][0][0]            ; 1       ;
; cache_data:CD|CACHE[0][0][0]            ; 1       ;
; cache_data:CD|CACHE[4][0][0]            ; 1       ;
; cache_data:CD|CACHE[1][1][10]           ; 1       ;
; cache_data:CD|CACHE[2][1][10]           ; 1       ;
; cache_data:CD|CACHE[0][1][10]           ; 1       ;
; cache_data:CD|CACHE[3][1][10]           ; 1       ;
; cache_data:CD|CACHE[6][1][10]           ; 1       ;
; cache_data:CD|CACHE[5][1][10]           ; 1       ;
; cache_data:CD|CACHE[4][1][10]           ; 1       ;
; cache_data:CD|CACHE[7][1][10]           ; 1       ;
; cache_data:CD|CACHE[2][0][1]            ; 1       ;
; cache_data:CD|CACHE[6][1][1]            ; 1       ;
; cache_data:CD|CACHE[2][1][1]            ; 1       ;
; cache_data:CD|CACHE[6][0][1]            ; 1       ;
; cache_data:CD|CACHE[1][0][1]            ; 1       ;
; cache_data:CD|CACHE[5][0][1]            ; 1       ;
; cache_data:CD|CACHE[0][1][1]            ; 1       ;
; cache_data:CD|CACHE[4][1][1]            ; 1       ;
; cache_data:CD|CACHE[5][1][2]            ; 1       ;
; cache_data:CD|CACHE[1][1][2]            ; 1       ;
; cache_data:CD|CACHE[5][0][2]            ; 1       ;
; cache_data:CD|CACHE[2][1][2]            ; 1       ;
; cache_data:CD|CACHE[6][0][2]            ; 1       ;
; cache_data:CD|CACHE[6][1][2]            ; 1       ;
; cache_data:CD|CACHE[4][0][2]            ; 1       ;
; cache_data:CD|CACHE[3][0][2]            ; 1       ;
; cache_data:CD|CACHE[6][1][3]            ; 1       ;
; cache_data:CD|CACHE[4][1][3]            ; 1       ;
; cache_data:CD|CACHE[3][1][3]            ; 1       ;
; cache_data:CD|CACHE[5][1][3]            ; 1       ;
; cache_data:CD|CACHE[7][0][3]            ; 1       ;
; cache_data:CD|CACHE[7][1][4]            ; 1       ;
; Total number of inverted registers = 34 ;         ;
+-----------------------------------------+---------+


+--------------------------------------------------------------------------------------------------------------------------------------------------------+
; Multiplexer Restructuring Statistics (Restructuring Performed)                                                                                         ;
+--------------------+-----------+---------------+----------------------+------------------------+------------+------------------------------------------+
; Multiplexer Inputs ; Bus Width ; Baseline Area ; Area if Restructured ; Saving if Restructured ; Registered ; Example Multiplexer Output               ;
+--------------------+-----------+---------------+----------------------+------------------------+------------+------------------------------------------+
; 3:1                ; 2 bits    ; 4 LEs         ; 4 LEs                ; 0 LEs                  ; Yes        ; |cache_memory|cache_data:CD|data_miss    ;
; 17:1               ; 8 bits    ; 88 LEs        ; 80 LEs               ; 8 LEs                  ; Yes        ; |cache_memory|cache_data:CD|data_read[5] ;
; 8:1                ; 9 bits    ; 45 LEs        ; 45 LEs               ; 0 LEs                  ; No         ; |cache_memory|cache_data:CD|Mux3         ;
+--------------------+-----------+---------------+----------------------+------------------------+------------+------------------------------------------+


+-------------------------------+
; Elapsed Time Per Partition    ;
+----------------+--------------+
; Partition Name ; Elapsed Time ;
+----------------+--------------+
; Top            ; 00:00:03     ;
+----------------+--------------+


+-------------------------------+
; Analysis & Synthesis Messages ;
+-------------------------------+
Info: *******************************************************************
Info: Running Quartus II 64-Bit Analysis & Synthesis
    Info: Version 13.0.1 Build 232 06/12/2013 Service Pack 1 SJ Full Version
    Info: Processing started: Fri Aug 25 15:27:12 2017
Info: Command: quartus_map --read_settings_files=on --write_settings_files=off cache_memory -c cache_memory
Info (11104): Parallel Compilation has detected 4 hyper-threaded processors. However, the extra hyper-threaded processors will not be used by default. Parallel Compilation will use 2 of the 2 physical processors detected instead.
Info (12021): Found 4 design units, including 4 entities, in source file cache_memory.v
    Info (12023): Found entity 1: convert_to_hexadecimal
    Info (12023): Found entity 2: display
    Info (12023): Found entity 3: cache_data
    Info (12023): Found entity 4: cache_memory
Info (12021): Found 1 design units, including 1 entities, in source file ramlpm.v
    Info (12023): Found entity 1: ramlpm
Info (12127): Elaborating entity "cache_memory" for the top level hierarchy
Warning (10030): Net "KEY[0]" at cache_memory.v(129) has no driver or initial value, using a default initial value '0'
Warning (10034): Output port "LEDG" at cache_memory.v(130) has no driver
Warning (10034): Output port "LEDR[15..2]" at cache_memory.v(132) has no driver
Info (12128): Elaborating entity "cache_data" for hierarchy "cache_data:CD"
Warning (10230): Verilog HDL assignment warning at cache_memory.v(71): truncated value with size 32 to match size of target (8)
Warning (10230): Verilog HDL assignment warning at cache_memory.v(73): truncated value with size 32 to match size of target (4)
Info (10008): Verilog HDL or VHDL information: EDA Netlist Writer cannot regroup multidimensional array "CACHE" into its bus
Info (12128): Elaborating entity "display" for hierarchy "display:D0"
Warning (10230): Verilog HDL assignment warning at cache_memory.v(37): truncated value with size 32 to match size of target (7)
Warning (10230): Verilog HDL assignment warning at cache_memory.v(38): truncated value with size 32 to match size of target (7)
Warning (10230): Verilog HDL assignment warning at cache_memory.v(41): truncated value with size 8 to match size of target (7)
Info (12128): Elaborating entity "convert_to_hexadecimal" for hierarchy "convert_to_hexadecimal:H0"
Warning (13024): Output pins are stuck at VCC or GND
    Warning (13410): Pin "HEX2[6]" is stuck at VCC
    Warning (13410): Pin "HEX2[5]" is stuck at VCC
    Warning (13410): Pin "HEX2[4]" is stuck at VCC
    Warning (13410): Pin "HEX2[3]" is stuck at VCC
    Warning (13410): Pin "HEX2[2]" is stuck at VCC
    Warning (13410): Pin "HEX2[1]" is stuck at VCC
    Warning (13410): Pin "HEX2[0]" is stuck at VCC
    Warning (13410): Pin "HEX3[6]" is stuck at VCC
    Warning (13410): Pin "HEX3[5]" is stuck at VCC
    Warning (13410): Pin "HEX3[4]" is stuck at VCC
    Warning (13410): Pin "HEX3[3]" is stuck at VCC
    Warning (13410): Pin "HEX3[2]" is stuck at VCC
    Warning (13410): Pin "HEX3[1]" is stuck at VCC
    Warning (13410): Pin "HEX3[0]" is stuck at VCC
    Warning (13410): Pin "KEY[0]" is stuck at GND
    Warning (13410): Pin "LEDG[0]" is stuck at GND
    Warning (13410): Pin "LEDG[1]" is stuck at GND
    Warning (13410): Pin "LEDG[2]" is stuck at GND
    Warning (13410): Pin "LEDG[3]" is stuck at GND
    Warning (13410): Pin "LEDG[4]" is stuck at GND
    Warning (13410): Pin "LEDG[5]" is stuck at GND
    Warning (13410): Pin "LEDG[6]" is stuck at GND
    Warning (13410): Pin "LEDG[7]" is stuck at GND
    Warning (13410): Pin "LEDR[2]" is stuck at GND
    Warning (13410): Pin "LEDR[3]" is stuck at GND
    Warning (13410): Pin "LEDR[4]" is stuck at GND
    Warning (13410): Pin "LEDR[5]" is stuck at GND
    Warning (13410): Pin "LEDR[6]" is stuck at GND
    Warning (13410): Pin "LEDR[7]" is stuck at GND
    Warning (13410): Pin "LEDR[8]" is stuck at GND
    Warning (13410): Pin "LEDR[9]" is stuck at GND
    Warning (13410): Pin "LEDR[10]" is stuck at GND
    Warning (13410): Pin "LEDR[11]" is stuck at GND
    Warning (13410): Pin "LEDR[12]" is stuck at GND
    Warning (13410): Pin "LEDR[13]" is stuck at GND
    Warning (13410): Pin "LEDR[14]" is stuck at GND
    Warning (13410): Pin "LEDR[15]" is stuck at GND
    Warning (13410): Pin "LEDR[16]" is stuck at GND
Info (16010): Generating hard_block partition "hard_block:auto_generated_inst"
    Info (16011): Adding 0 node(s), including 0 DDIO, 0 PLL, 0 transceiver and 0 LCELL
Info (21057): Implemented 496 device resources after synthesis - the final resource count might be different
    Info (21058): Implemented 18 input pins
    Info (21059): Implemented 83 output pins
    Info (21061): Implemented 395 logic cells
Info: Quartus II 64-Bit Analysis & Synthesis was successful. 0 errors, 47 warnings
    Info: Peak virtual memory: 488 megabytes
    Info: Processing ended: Fri Aug 25 15:27:21 2017
    Info: Elapsed time: 00:00:09
    Info: Total CPU time (on all processors): 00:00:05


