\relax 
\providecommand\hyper@newdestlabel[2]{}
\catcode `"\active 
\providecommand\HyperFirstAtBeginDocument{\AtBeginDocument}
\HyperFirstAtBeginDocument{\ifx\hyper@anchor\@undefined
\global\let\oldcontentsline\contentsline
\gdef\contentsline#1#2#3#4{\oldcontentsline{#1}{#2}{#3}}
\global\let\oldnewlabel\newlabel
\gdef\newlabel#1#2{\newlabelxx{#1}#2}
\gdef\newlabelxx#1#2#3#4#5#6{\oldnewlabel{#1}{{#2}{#3}}}
\AtEndDocument{\ifx\hyper@anchor\@undefined
\let\contentsline\oldcontentsline
\let\newlabel\oldnewlabel
\fi}
\fi}
\global\let\hyper@last\relax 
\gdef\HyperFirstAtBeginDocument#1{#1}
\providecommand\HyField@AuxAddToFields[1]{}
\providecommand\HyField@AuxAddToCoFields[2]{}
\select@language{brazil}
\@writefile{toc}{\select@language{brazil}}
\@writefile{lof}{\select@language{brazil}}
\@writefile{lot}{\select@language{brazil}}
\select@language{english}
\@writefile{toc}{\select@language{english}}
\@writefile{lof}{\select@language{english}}
\@writefile{lot}{\select@language{english}}
\select@language{brazil}
\@writefile{toc}{\select@language{brazil}}
\@writefile{lof}{\select@language{brazil}}
\@writefile{lot}{\select@language{brazil}}
\@writefile{toc}{\contentsline {section}{\numberline {1}Metodologia}{1}{section.1}}
\@writefile{toc}{\contentsline {subsection}{\numberline {1.1}Organiza\IeC {\c c}\IeC {\~a}o e Planejamento do projeto}{1}{subsection.1.1}}
\@writefile{toc}{\contentsline {subsection}{\numberline {1.2}Ferramentas utilizadas}{2}{subsection.1.2}}
\@writefile{toc}{\contentsline {section}{\numberline {2}Refer\IeC {\^e}ncias}{2}{section.2}}
\@writefile{toc}{\contentsline {subsection}{\numberline {2.1}M\IeC {\'o}dulos para convers\IeC {\~a}o dos dados de entrada e de sa\IeC {\'\i }da}{2}{subsection.2.1}}
\@writefile{toc}{\contentsline {subsubsection}{\numberline {2.1.1}convert\_to\_hexadecimal}{2}{subsubsection.2.1.1}}
\@writefile{lol}{\contentsline {lstlisting}{cachememory.v}{2}{lstlisting.-1}}
\@writefile{toc}{\contentsline {subsubsection}{\numberline {2.1.2}display}{3}{subsubsection.2.1.2}}
\@writefile{lol}{\contentsline {lstlisting}{cachememory.v}{3}{lstlisting.-2}}
\@writefile{toc}{\contentsline {subsection}{\numberline {2.2}M\IeC {\'o}dulo de implementa\IeC {\c c}\IeC {\~a}o da mem\IeC {\'o}ria RAM com 32 palavras de 4 bits - parteI}{3}{subsection.2.2}}
\@writefile{lof}{\contentsline {figure}{\numberline {1}{\ignorespaces M\IeC {\'o}dulo de RAM 32 x 8 bits.}}{4}{figure.1}}
\newlabel{fig:modelramlpm}{{1}{4}{Módulo de RAM 32 x 8 bits}{figure.1}{}}
\@writefile{lol}{\contentsline {lstlisting}{parteI.v}{4}{lstlisting.-3}}
\@writefile{toc}{\contentsline {subsection}{\numberline {2.3}M\IeC {\'o}dulos de implementa\IeC {\c c}\IeC {\~a}o da mem\IeC {\'o}ria com a utiliza\IeC {\c c}\IeC {\~a}o do arquivo MIF - parte II}{5}{subsection.2.3}}
\@writefile{lol}{\contentsline {lstlisting}{parteII.v}{5}{lstlisting.-4}}
\@writefile{toc}{\contentsline {subsection}{\numberline {2.4}M\IeC {\'o}dulos de implementa\IeC {\c c}\IeC {\~a}o da mem\IeC {\'o}ria cache associativa por conjunto de duas vias}{6}{subsection.2.4}}
\@writefile{lot}{\contentsline {table}{\numberline {1}{\ignorespaces Bit de dados.}}{6}{table.1}}
\newlabel{table:bitdados}{{1}{6}{Bit de dados}{table.1}{}}
\@writefile{toc}{\contentsline {subsubsection}{\numberline {2.4.1}cache\_data}{6}{subsubsection.2.4.1}}
\@writefile{lol}{\contentsline {lstlisting}{cachememory.v}{6}{lstlisting.-5}}
\@writefile{toc}{\contentsline {subsubsection}{\numberline {2.4.2}cache\_memory}{9}{subsubsection.2.4.2}}
\@writefile{lol}{\contentsline {lstlisting}{cachememory.v}{9}{lstlisting.-6}}
\@writefile{toc}{\contentsline {section}{\numberline {3}Resultados obtidos}{10}{section.3}}
\@writefile{toc}{\contentsline {subsection}{\numberline {3.1}parteI}{10}{subsection.3.1}}
\@writefile{lof}{\contentsline {figure}{\numberline {2}{\ignorespaces O conte\IeC {\'u}do destacado de azul representa os dados de entrada e de vermelho representa a sa\IeC {\'\i }da dos displays HEX 7-4 HEX 1-0; portanto pode-se concluir que os dados escritos na mem\IeC {\'o}ria \textit  {ramlpm} estavam de acordo com o esperado.}}{10}{figure.2}}
\newlabel{fig:parteI1}{{2}{10}{O conteúdo destacado de azul representa os dados de entrada e de vermelho representa a saída dos displays HEX 7-4 HEX 1-0; portanto pode-se concluir que os dados escritos na memória \textit {ramlpm} estavam de acordo com o esperado}{figure.2}{}}
\@writefile{lof}{\contentsline {figure}{\numberline {3}{\ignorespaces O conte\IeC {\'u}do destacado de roxo representa a habilita\IeC {\c c}\IeC {\~a}o da escrita de dados, de azul os pr\IeC {\'o}prios dados e de vermelho a sa\IeC {\'\i }da dos displays HEX 7-4 HEX 1-0; portanto pode-se concluir que a sa\IeC {\'\i }da do displays \IeC {\'e} a esperada.}}{10}{figure.3}}
\newlabel{fig:parteI2}{{3}{10}{O conteúdo destacado de roxo representa a habilitação da escrita de dados, de azul os próprios dados e de vermelho a saída dos displays HEX 7-4 HEX 1-0; portanto pode-se concluir que a saída do displays é a esperada}{figure.3}{}}
\@writefile{lof}{\contentsline {figure}{\numberline {4}{\ignorespaces O conte\IeC {\'u}do destacado de roxo representa a habilita\IeC {\c c}\IeC {\~a}o do clock, de azul os dados de escrita e de vermelho a sa\IeC {\'\i }da dos displays HEX 7-4 HEX 1-0; portanto pode-se concluir que \IeC {\'e} poss\IeC {\'\i }vel realizar escrita na mem\IeC {\'o}ria \textit  {ramlpm} e exibi-los nos displays.}}{10}{figure.4}}
\newlabel{fig:parteI3}{{4}{10}{O conteúdo destacado de roxo representa a habilitação do clock, de azul os dados de escrita e de vermelho a saída dos displays HEX 7-4 HEX 1-0; portanto pode-se concluir que é possível realizar escrita na memória \textit {ramlpm} e exibi-los nos displays}{figure.4}{}}
\@writefile{toc}{\contentsline {subsection}{\numberline {3.2}parteII}{11}{subsection.3.2}}
\@writefile{lof}{\contentsline {figure}{\numberline {5}{\ignorespaces O conte\IeC {\'u}do destacado de roxo representa o dado encontrado na mem\IeC {\'o}ria e de vermelho a sa\IeC {\'\i }da dos displays HEX 7-4 HEX 1-0; portanto h\IeC {\'a} a exibi\IeC {\c c}\IeC {\~a}o dos dados nos displays.}}{11}{figure.5}}
\newlabel{fig:parteII1}{{5}{11}{O conteúdo destacado de roxo representa o dado encontrado na memória e de vermelho a saída dos displays HEX 7-4 HEX 1-0; portanto há a exibição dos dados nos displays}{figure.5}{}}
\@writefile{lof}{\contentsline {figure}{\numberline {6}{\ignorespaces O conte\IeC {\'u}do destacado de roxo representa a habilita\IeC {\c c}\IeC {\~a}o da escrita.}}{11}{figure.6}}
\newlabel{fig:parteII2}{{6}{11}{O conteúdo destacado de roxo representa a habilitação da escrita}{figure.6}{}}
\@writefile{lof}{\contentsline {figure}{\numberline {7}{\ignorespaces O conte\IeC {\'u}do destacado de roxo representa a habilita\IeC {\c c}\IeC {\~a}o do clock, de azul o dado a ser escrito na mem\IeC {\'o}ria \textit  {ramlpm} e de vermelho o dado j\IeC {\'a} escrito; portanto pode-se concluir que h\IeC {\'a} escrita na mem\IeC {\'o}ria.}}{11}{figure.7}}
\newlabel{fig:parteII3}{{7}{11}{O conteúdo destacado de roxo representa a habilitação do clock, de azul o dado a ser escrito na memória \textit {ramlpm} e de vermelho o dado já escrito; portanto pode-se concluir que há escrita na memória}{figure.7}{}}
\@writefile{lof}{\contentsline {figure}{\numberline {8}{\ignorespaces O conte\IeC {\'u}do destacado de roxo representa a desabilita\IeC {\c c}\IeC {\~a}o do clock e de vermelho o dado escrito; portanto pode-se concluir que o dado permaneceu na mem\IeC {\'o}ria escrito ap\IeC {\'o}s 1 ciclo de clock.}}{11}{figure.8}}
\newlabel{fig:parteII4}{{8}{11}{O conteúdo destacado de roxo representa a desabilitação do clock e de vermelho o dado escrito; portanto pode-se concluir que o dado permaneceu na memória escrito após 1 ciclo de clock}{figure.8}{}}
\@writefile{lof}{\contentsline {figure}{\numberline {9}{\ignorespaces O conte\IeC {\'u}do destacado de azul representa o endere\IeC {\c c}o e o de vermelho a sa\IeC {\'\i }da dos displays HEX 7-4 HEX 1-0; portanto h\IeC {\'a} a exibi\IeC {\c c}\IeC {\~a}o dos dados nos displays.}}{12}{figure.9}}
\newlabel{fig:parteII5}{{9}{12}{O conteúdo destacado de azul representa o endereço e o de vermelho a saída dos displays HEX 7-4 HEX 1-0; portanto há a exibição dos dados nos displays}{figure.9}{}}
\@writefile{toc}{\contentsline {subsection}{\numberline {3.3}parteIII}{12}{subsection.3.3}}
\@writefile{lof}{\contentsline {figure}{\numberline {10}{\ignorespaces O conte\IeC {\'u}do destacado em vermelho representa a habilita\IeC {\c c}\IeC {\~a}o do clock e da vari\IeC {\'a}vel de escrita da cache e de roxo o dado a ser escrito.}}{12}{figure.10}}
\newlabel{fig:parteIII1}{{10}{12}{O conteúdo destacado em vermelho representa a habilitação do clock e da variável de escrita da cache e de roxo o dado a ser escrito}{figure.10}{}}
\@writefile{lof}{\contentsline {figure}{\numberline {11}{\ignorespaces O conte\IeC {\'u}do destacado representa 1 ciclo de clock com a escrita desabilitada. }}{12}{figure.11}}
\newlabel{fig:parteIII2}{{11}{12}{O conteúdo destacado representa 1 ciclo de clock com a escrita desabilitada}{figure.11}{}}
\@writefile{lof}{\contentsline {figure}{\numberline {12}{\ignorespaces O conte\IeC {\'u}do destacado representa mais 1 ciclo de clock em que h\IeC {\'a} leitura dos dados salvos na mem\IeC {\'o}ria cache por conjunto.}}{12}{figure.12}}
\newlabel{fig:parteIII3}{{12}{12}{O conteúdo destacado representa mais 1 ciclo de clock em que há leitura dos dados salvos na memória cache por conjunto}{figure.12}{}}
\@writefile{lof}{\contentsline {figure}{\numberline {13}{\ignorespaces O conte\IeC {\'u}do destacado em roxo representa a desabilita\IeC {\c c}\IeC {\~a}o do clock e de vermelho o dado lido direto da mem\IeC {\'o}ria cache por conjunto.}}{13}{figure.13}}
\newlabel{fig:parteIII4}{{13}{13}{O conteúdo destacado em roxo representa a desabilitação do clock e de vermelho o dado lido direto da memória cache por conjunto}{figure.13}{}}
\@writefile{toc}{\contentsline {section}{\numberline {4}Conclus\IeC {\~a}o}{13}{section.4}}
